…
#### RMeCabFreqの代替

``` r
sentence %>% 
  pipian::ppn_cabocha() %>% 
  pipian::ppn_parse_xml() %>% 
  pipian::gbs_freq()
#> # A tibble: 53 x 4
#>    Term   Info1  Info2   Freq
#>    <chr>  <chr>  <chr>  <int>
#>  1 、     記号   読点       6
#>  2 25     名詞   数         1
#>  3 い     動詞   自立       1
#>  4 いる   動詞   自立       1
#>  5 いれる 動詞   自立       1
#>  6 が     助詞   格助詞     3
#>  7 こと   名詞   非自立     2
#>  8 こんな 連体詞 <NA>       1
#>  9 させ   動詞   接尾       1
#> 10 せ     動詞   接尾       1
#> # ... with 43 more rows
```
…
