Practice: Dependency Parsing from NLP 100 Exercise 2020 (Rev1) • pipian
…
pattern <- memo %>%
  dplyr::filter(POS1 == "動詞") %>%
  dplyr::group_by(sentence_idx, chunk_idx, D1) %>%
  dplyr::group_map(~ .x %>%
    dplyr::mutate(collocation = stringr::str_c(
      "",
      memo$Original[memo$sentence_idx == .y$sentence_idx & memo$D2 == .y$D1 & memo$POS1 == "助詞"],
      collapse = " "
    ))) %>%
  purrr::map_dfr(~.) %>%
  dplyr::select(Original, collocation)

pattern
#> # A tibble: 274 x 2
#>    Original collocation    
#>    <chr>    <chr>          
#>  1 試みる   は を          
#>  2 いる     は を          
#>  3 する     を             
#>  4 できる   て は により を
#>  5 する     は を          
#>  6 する     を             
#>  7 する     を             
#>  8 せる     を             
#>  9 する     に は て を    
#> 10 いる     に は て を    
#> # ... with 264 more rows
…
pattern
#> # A tibble: 274 x 3
#>    Original collocation     chunk                                              
#>    <chr>    <chr>           <chr>                                              
#>  1 試みる   は を           軍隊は、 自動化を                                  
#>  2 いる     は を           軍隊は、 自動化を                                  
#>  3 する     を              「」を                                             
#>  4 できる   て は により を 試みている。 アメリカ海軍は 砲により 対艦ミサイルを
#>  5 する     は を           イスラエル軍は 「」を                              
#>  6 する     を              標的を                                             
#>  7 する     を              サムソンを                                         
#>  8 せる     を              サムソンを                                         
#>  9 する     に は て を     境界線には 境界線には 稼働させて 人間を            
#> 10 いる     に は て を     境界線には 境界線には 稼働させて 人間を            
#> # ... with 264 more rows
…
pattern
#> # A tibble: 238 x 3
#>    surface_form          collocation     chunk                                  
#>    <chr>                 <chr>           <chr>                                  
#>  1 ミサイル防衛の        ""              ""                                     
#>  2 導入し                "を"            "「」を"                               
#>  3 破壊できる。          "て は により を"~ "試みている。 アメリカ海軍は 砲により 対艦ミサイルを"~
#>  4 対空迎撃ミサイルシステム~ ""              ""                                     
#>  5 所有し、              "は を"         "イスラエル軍は 「」を"                
#>  6 自動検知する          "を"            "標的を"                               
#>  7 稼働させて            "を"            "サムソンを"                           
#>  8 射殺している。        "に は て を"   "境界線には 境界線には 稼働させて 人間を"~
#>  9 指揮、                "の"            "軍の"                                 
#> 10 訓練、                ""              ""                                     
#> # ... with 228 more rows
…
